{"links":[{"rel":"first","href":"http://localhost:8080/contributor/searchByLikePageable/reference=499;period=2017?page=0&size=10&sort=period,desc","hreflang":null,"media":null,"title":null,"type":null,"deprecation":null},{"rel":"self","href":"http://localhost:8080/contributor/searchByLikePageable/reference=499;period=2017","hreflang":null,"media":null,"title":null,"type":null,"deprecation":null},{"rel":"next","href":"http://localhost:8080/contributor/searchByLikePageable/reference=499;period=2017?page=1&size=10&sort=period,desc","hreflang":null,"media":null,"title":null,"type":null,"deprecation":null},{"rel":"last","href":"http://localhost:8080/contributor/searchByLikePageable/reference=499;period=2017?page=152&size=10&sort=period,desc","hreflang":null,"media":null,"title":null,"type":null,"deprecation":null}],"content":[{"reference":"49900000119","period":"201712","survey":"066","formid":4,"status":"Saved not Validated","receiptDate":null,"lockedBy":"Alan","lockedDate":"2018-12-21 13:56:07.1447110 +00:00","createdBy":"Frank","createdDate":"2018-12-21 13:56:07.1447110 +00:00","lastUpdatedBy":null,"lastUpdatedDate":null,"formType":"0003","checkletter":"A","frozenSicOutdated":"56423","ruSicOutdated":"56424","frozenSic":"56426","ruSic":"56424","frozenEmployees":355696,"employees":100943,"frozenEmployment":271638,"employment":340531,"frozenFteEmployment":414016.080,"fteEmployment":373747.230,"frozenTurnover":893837,"turnover":378324,"enterpriseReference":"9900437170","wowEnterpriseReference":"925531934","cellNumber":"224","currency":"E","vatReference":"123456789012","payeReference":"3210987654321","companyRegistrationNumber":"123456","numberLiveLocalUnits":6600,"numberLiveVat":4553,"numberLivePaye":40,"legalStatus":"8","reportingUnitMarker":"A","region":"AA","birthDate":"","enterpriseName":"An enterprise name","name":"A reference name","address":"A random reference address","postcode":"AA9A 9AA","tradingStyle":"A random trading style","contact":"Mr contact person","telephone":"01234 567 890","fax":"+0044 1234 567 891","selectionType":"G","inclusionExclusion":"X","links":[]},{"reference":"49900000119","period":"201712","survey":"067","formid":3,"status":"No Response","receiptDate":null,"lockedBy":"","lockedDate":null,"createdBy":"Frank","createdDate":"2018-12-21 13:56:21.3558320 +00:00","lastUpdatedBy":null,"lastUpdatedDate":null,"formType":"0002","checkletter":"E","frozenSicOutdated":"56423","ruSicOutdated":"56424","frozenSic":"56426","ruSic":"56424","frozenEmployees":305525,"employees":203483,"frozenEmployment":194284,"employment":102562,"frozenFteEmployment":349924.830,"fteEmployment":174083.240,"frozenTurnover":75913,"turnover":995065,"enterpriseReference":"9900109725","wowEnterpriseReference":"465470751","cellNumber":"971","currency":"S","vatReference":"123456789012","payeReference":"3210987654321","companyRegistrationNumber":"123456","numberLiveLocalUnits":2607,"numberLiveVat":3057,"numberLivePaye":8983,"legalStatus":"5","reportingUnitMarker":"A","region":"AA","birthDate":"","enterpriseName":"An enterprise name","name":"A reference name","address":"A random reference address","postcode":"AA99 9AA","tradingStyle":"A random trading style","contact":"Mr contact person","telephone":"01234 567 890","fax":"+0044 1234 567 891","selectionType":"G","inclusionExclusion":"X","links":[]},{"reference":"49900000100","period":"201712","survey":"066","formid":1,"status":"Dead","receiptDate":null,"lockedBy":"","lockedDate":null,"createdBy":"Frank","createdDate":"2018-12-21 13:51:34.8110330 +00:00","lastUpdatedBy":"kilbar","lastUpdatedDate":"2019-02-07 13:37:07.1590000 +00:00","formType":"0002","checkletter":"X","frozenSicOutdated":"56423","ruSicOutdated":"56424","frozenSic":"56426","ruSic":"56424","frozenEmployees":196339,"employees":279995,"frozenEmployment":144476,"employment":366112,"frozenFteEmployment":3011.980,"fteEmployment":191321.300,"frozenTurnover":687686,"turnover":371877,"enterpriseReference":"9900583403","wowEnterpriseReference":"261761174","cellNumber":"219","currency":"S","vatReference":"123456789012","payeReference":"3210987654321","companyRegistrationNumber":"123456","numberLiveLocalUnits":2961,"numberLiveVat":5884,"numberLivePaye":3380,"legalStatus":"7","reportingUnitMarker":"A","region":"AA","birthDate":"","enterpriseName":"An enterprise name","name":"A reference name","address":"A random reference address","postcode":"A9A 9AA","tradingStyle":"A random trading style","contact":"Mr contact person","telephone":"01234 567 890","fax":"+0044 1234 567 891","selectionType":"G","inclusionExclusion":"X","links":[]},{"reference":"49900000101","period":"201712","survey":"066","formid":4,"status":"No Response","receiptDate":null,"lockedBy":"","lockedDate":null,"createdBy":"Frank","createdDate":"2018-12-21 13:51:34.8110330 +00:00","lastUpdatedBy":"kilbar","lastUpdatedDate":"2019-01-24 15:03:23.7340000 +00:00","formType":"0004","checkletter":"E","frozenSicOutdated":"56423","ruSicOutdated":"56424","frozenSic":"56426","ruSic":"56424","frozenEmployees":92654,"employees":347020,"frozenEmployment":45808,"employment":142880,"frozenFteEmployment":98317.420,"fteEmployment":17060.100,"frozenTurnover":653809,"turnover":365826,"enterpriseReference":"9900312361","wowEnterpriseReference":"909265596","cellNumber":"264","currency":"S","vatReference":"123456789012","payeReference":"3210987654321","companyRegistrationNumber":"123456","numberLiveLocalUnits":157,"numberLiveVat":1389,"numberLivePaye":6186,"legalStatus":"4","reportingUnitMarker":"A","region":"AA","birthDate":"","enterpriseName":"An enterprise name","name":"A reference name","address":"A random reference address","postcode":"AA9A 9AA","tradingStyle":"A random trading style","contact":"Mr contact person","telephone":"01234 567 890","fax":"+0044 1234 567 891","selectionType":"G","inclusionExclusion":"X","links":[]},{"reference":"49900000102","period":"201712","survey":"066","formid":2,"status":"Saved not Validated","receiptDate":null,"lockedBy":"","lockedDate":null,"createdBy":"Frank","createdDate":"2018-12-21 13:51:34.8110330 +00:00","lastUpdatedBy":"kilbar","lastUpdatedDate":"2019-01-28 08:15:27.2920000 +00:00","formType":"0001","checkletter":"I","frozenSicOutdated":"56423","ruSicOutdated":"56424","frozenSic":"56426","ruSic":"56424","frozenEmployees":131784,"employees":351720,"frozenEmployment":362890,"employment":125095,"frozenFteEmployment":111650.600,"fteEmployment":432782.090,"frozenTurnover":185530,"turnover":501917,"enterpriseReference":"9900267363","wowEnterpriseReference":"366144190","cellNumber":"747","currency":"S","vatReference":"123456789012","payeReference":"3210987654321","companyRegistrationNumber":"123456","numberLiveLocalUnits":6660,"numberLiveVat":8533,"numberLivePaye":9394,"legalStatus":"9","reportingUnitMarker":"A","region":"AA","birthDate":"","enterpriseName":"An enterprise name","name":"A reference name","address":"A random reference address","postcode":"A9A 9AA","tradingStyle":"A random trading style","contact":"Mr contact person","telephone":"01234 567 890","fax":"+0044 1234 567 891","selectionType":"G","inclusionExclusion":"X","links":[]},{"reference":"49900000103","period":"201712","survey":"066","formid":4,"status":"Saved not Validated","receiptDate":null,"lockedBy":"","lockedDate":null,"createdBy":"Frank","createdDate":"2018-12-21 13:51:34.8110330 +00:00","lastUpdatedBy":"kilbar","lastUpdatedDate":"2019-01-18 10:30:04.6860000 +00:00","formType":"0003","checkletter":"I","frozenSicOutdated":"56423","ruSicOutdated":"56424","frozenSic":"56426","ruSic":"56424","frozenEmployees":25412,"employees":380989,"frozenEmployment":360036,"employment":97340,"frozenFteEmployment":247876.550,"fteEmployment":133064.590,"frozenTurnover":683095,"turnover":481825,"enterpriseReference":"9900947276","wowEnterpriseReference":"433203105","cellNumber":"283","currency":"S","vatReference":"123456789012","payeReference":"3210987654321","companyRegistrationNumber":"123456","numberLiveLocalUnits":6816,"numberLiveVat":4099,"numberLivePaye":4927,"legalStatus":"9","reportingUnitMarker":"A","region":"AA","birthDate":"","enterpriseName":"An enterprise name","name":"A reference name","address":"A random reference address","postcode":"A9 9AA","tradingStyle":"A random trading style","contact":"Mr contact person","telephone":"01234 567 890","fax":"+0044 1234 567 891","selectionType":"G","inclusionExclusion":"X","links":[]},{"reference":"49900000104","period":"201712","survey":"066","formid":1,"status":"Saved not Validated","receiptDate":null,"lockedBy":"","lockedDate":null,"createdBy":"Frank","createdDate":"2018-12-21 13:51:34.8110330 +00:00","lastUpdatedBy":"kilbar","lastUpdatedDate":"2019-01-18 10:37:44.3350000 +00:00","formType":"0001","checkletter":"I","frozenSicOutdated":"56423","ruSicOutdated":"56424","frozenSic":"56426","ruSic":"56424","frozenEmployees":446764,"employees":142114,"frozenEmployment":315847,"employment":169715,"frozenFteEmployment":445000.800,"fteEmployment":336413.950,"frozenTurnover":245433,"turnover":90156,"enterpriseReference":"9900312002","wowEnterpriseReference":"973500019","cellNumber":"655","currency":"E","vatReference":"123456789012","payeReference":"3210987654321","companyRegistrationNumber":"123456","numberLiveLocalUnits":8362,"numberLiveVat":9457,"numberLivePaye":1677,"legalStatus":"6","reportingUnitMarker":"A","region":"AA","birthDate":"","enterpriseName":"An enterprise name","name":"A reference name","address":"A random reference address","postcode":"A9A 9AA","tradingStyle":"A random trading style","contact":"Mr contact person","telephone":"01234 567 890","fax":"+0044 1234 567 891","selectionType":"G","inclusionExclusion":"X","links":[]},{"reference":"49900000105","period":"201712","survey":"066","formid":4,"status":"Overridden","receiptDate":null,"lockedBy":"","lockedDate":null,"createdBy":"Frank","createdDate":"2018-12-21 13:51:34.8120080 +00:00","lastUpdatedBy":"kilbar","lastUpdatedDate":"2019-01-23 11:12:42.1870000 +00:00","formType":"0004","checkletter":"E","frozenSicOutdated":"56423","ruSicOutdated":"56424","frozenSic":"56426","ruSic":"56424","frozenEmployees":300182,"employees":476451,"frozenEmployment":246017,"employment":406073,"frozenFteEmployment":335716.880,"fteEmployment":163793.530,"frozenTurnover":965988,"turnover":715045,"enterpriseReference":"9900864929","wowEnterpriseReference":"442726249","cellNumber":"620","currency":"S","vatReference":"123456789012","payeReference":"3210987654321","companyRegistrationNumber":"123456","numberLiveLocalUnits":9674,"numberLiveVat":1955,"numberLivePaye":7724,"legalStatus":"8","reportingUnitMarker":"A","region":"AA","birthDate":"","enterpriseName":"An enterprise name","name":"A reference name","address":"A random reference address","postcode":"A9 9AA","tradingStyle":"A random trading style","contact":"Mr contact person","telephone":"01234 567 890","fax":"+0044 1234 567 891","selectionType":"G","inclusionExclusion":"X","links":[]},{"reference":"49900000106","period":"201712","survey":"066","formid":3,"status":"Overridden","receiptDate":null,"lockedBy":"","lockedDate":null,"createdBy":"Frank","createdDate":"2018-12-21 13:51:34.8120080 +00:00","lastUpdatedBy":"kilbar","lastUpdatedDate":"2019-02-07 17:19:45.8510000 +00:00","formType":"0004","checkletter":"X","frozenSicOutdated":"56423","ruSicOutdated":"56424","frozenSic":"56426","ruSic":"56424","frozenEmployees":36104,"employees":227568,"frozenEmployment":90031,"employment":127768,"frozenFteEmployment":155390.310,"fteEmployment":279560.000,"frozenTurnover":362388,"turnover":540348,"enterpriseReference":"9900457403","wowEnterpriseReference":"631172006","cellNumber":"725","currency":"S","vatReference":"123456789012","payeReference":"3210987654321","companyRegistrationNumber":"123456","numberLiveLocalUnits":7334,"numberLiveVat":507,"numberLivePaye":5437,"legalStatus":"8","reportingUnitMarker":"A","region":"AA","birthDate":"","enterpriseName":"An enterprise name","name":"A reference name","address":"A random reference address","postcode":"A99 9AA","tradingStyle":"A random trading style","contact":"Mr contact person","telephone":"01234 567 890","fax":"+0044 1234 567 891","selectionType":"G","inclusionExclusion":"X","links":[]},{"reference":"49900000107","period":"201712","survey":"066","formid":1,"status":"Overridden","receiptDate":null,"lockedBy":"","lockedDate":null,"createdBy":"Frank","createdDate":"2018-12-21 13:51:34.8120080 +00:00","lastUpdatedBy":"kilbar","lastUpdatedDate":"2019-01-24 07:15:21.3460000 +00:00","formType":"0002","checkletter":"E","frozenSicOutdated":"56423","ruSicOutdated":"56424","frozenSic":"56426","ruSic":"56424","frozenEmployees":366923,"employees":87875,"frozenEmployment":421075,"employment":318581,"frozenFteEmployment":492136.210,"fteEmployment":159344.740,"frozenTurnover":971964,"turnover":663301,"enterpriseReference":"9900237926","wowEnterpriseReference":"169683479","cellNumber":"629","currency":"E","vatReference":"123456789012","payeReference":"3210987654321","companyRegistrationNumber":"123456","numberLiveLocalUnits":6564,"numberLiveVat":916,"numberLivePaye":6838,"legalStatus":"6","reportingUnitMarker":"A","region":"AA","birthDate":"","enterpriseName":"An enterprise name","name":"A reference name","address":"A random reference address","postcode":"A9 9AA","tradingStyle":"A random trading style","contact":"Mr contact person","telephone":"01234 567 890","fax":"+0044 1234 567 891","selectionType":"G","inclusionExclusion":"X","links":[]}],"page":{"size":10,"totalElements":1530,"totalPages":153,"number":0}}