{
    "links": [
        {
            "rel": "first",
            "href": "http://localhost:8080/contributor/searchByLikePageable/reference=499;period=2017?page=0&size=10&sort=period,desc",
            "hreflang": null,
            "media": null,
            "title": null,
            "type": null,
            "deprecation": null
        },
        {
            "rel": "self",
            "href": "http://localhost:8080/contributor/searchByLikePageable/reference=499;period=2017",
            "hreflang": null,
            "media": null,
            "title": null,
            "type": null,
            "deprecation": null
        },
        {
            "rel": "next",
            "href": "http://localhost:8080/contributor/searchByLikePageable/reference=499;period=2017?page=1&size=10&sort=period,desc",
            "hreflang": null,
            "media": null,
            "title": null,
            "type": null,
            "deprecation": null
        },
        {
            "rel": "last",
            "href": "http://localhost:8080/contributor/searchByLikePageable/reference=499;period=2017?page=152&size=10&sort=period,desc",
            "hreflang": null,
            "media": null,
            "title": null,
            "type": null,
            "deprecation": null
        }
    ],
    "content": [
        {
            "reference": "49900000119",
            "period": "201712",
            "survey": "066",
            "formid": 4,
            "status": "Saved not Validated",
            "receiptDate": null,
            "lockedBy": "Alan",
            "lockedDate": "2018-12-21 13:56:07.1447110 +00:00",
            "createdBy": "Frank",
            "createdDate": "2018-12-21 13:56:07.1447110 +00:00",
            "lastUpdatedBy": null,
            "lastUpdatedDate": null,
            "formType": "0003",
            "checkletter": "A",
            "frozenSicOutdated": "56423",
            "ruSicOutdated": "56424",
            "frozenSic": "56426",
            "ruSic": "56424",
            "frozenEmployees": 355696,
            "employees": 100943,
            "frozenEmployment": 271638,
            "employment": 340531,
            "frozenFteEmployment": 414016.080,
            "fteEmployment": 373747.230,
            "frozenTurnover": 893837,
            "turnover": 378324,
            "enterpriseReference": "9900437170",
            "wowEnterpriseReference": "925531934",
            "cellNumber": "224",
            "currency": "E",
            "vatReference": "123456789012",
            "payeReference": "3210987654321",
            "companyRegistrationNumber": "123456",
            "numberLiveLocalUnits": 6600,
            "numberLiveVat": 4553,
            "numberLivePaye": 40,
            "legalStatus": "8",
            "reportingUnitMarker": "A",
            "region": "AA",
            "birthDate": "",
            "enterpriseName": "An enterprise name",
            "name": "A reference name",
            "address": "A random reference address",
            "postcode": "AA9A 9AA",
            "tradingStyle": "A random trading style",
            "contact": "Mr contact person",
            "telephone": "01234 567 890",
            "fax": "+0044 1234 567 891",
            "selectionType": "G",
            "inclusionExclusion": "X",
            "links": []
        },
        {
            "reference": "49900000119",
            "period": "201712",
            "survey": "067",
            "formid": 3,
            "status": "No Response",
            "receiptDate": null,
            "lockedBy": "",
            "lockedDate": null,
            "createdBy": "Frank",
            "createdDate": "2018-12-21 13:56:21.3558320 +00:00",
            "lastUpdatedBy": null,
            "lastUpdatedDate": null,
            "formType": "0002",
            "checkletter": "E",
            "frozenSicOutdated": "56423",
            "ruSicOutdated": "56424",
            "frozenSic": "56426",
            "ruSic": "56424",
            "frozenEmployees": 305525,
            "employees": 203483,
            "frozenEmployment": 194284,
            "employment": 102562,
            "frozenFteEmployment": 349924.830,
            "fteEmployment": 174083.240,
            "frozenTurnover": 75913,
            "turnover": 995065,
            "enterpriseReference": "9900109725",
            "wowEnterpriseReference": "465470751",
            "cellNumber": "971",
            "currency": "S",
            "vatReference": "123456789012",
            "payeReference": "3210987654321",
            "companyRegistrationNumber": "123456",
            "numberLiveLocalUnits": 2607,
            "numberLiveVat": 3057,
            "numberLivePaye": 8983,
            "legalStatus": "5",
            "reportingUnitMarker": "A",
            "region": "AA",
            "birthDate": "",
            "enterpriseName": "An enterprise name",
            "name": "A reference name",
            "address": "A random reference address",
            "postcode": "AA99 9AA",
            "tradingStyle": "A random trading style",
            "contact": "Mr contact person",
            "telephone": "01234 567 890",
            "fax": "+0044 1234 567 891",
            "selectionType": "G",
            "inclusionExclusion": "X",
            "links": []
        }
    ],
    "page": {
        "size": 10,
        "totalElements": 1530,
        "totalPages": 153,
        "number": 0
    }
}