{
    "links": [
        {
            "rel": "first",
            "href": "http://localhost:8080/contributor/searchByLikePageable/reference=499;period=2017?page=0&size=10&sort=period,desc",
            "hreflang": null,
            "media": null,
            "title": null,
            "type": null,
            "deprecation": null
        },
        {
            "rel": "self",
            "href": "http://localhost:8080/contributor/searchByLikePageable/reference=499;period=2017",
            "hreflang": null,
            "media": null,
            "title": null,
            "type": null,
            "deprecation": null
        },
        {
            "rel": "next",
            "href": "http://localhost:8080/contributor/searchByLikePageable/reference=499;period=2017?page=1&size=10&sort=period,desc",
            "hreflang": null,
            "media": null,
            "title": null,
            "type": null,
            "deprecation": null
        },
        {
            "rel": "last",
            "href": "http://localhost:8080/contributor/searchByLikePageable/reference=499;period=2017?page=152&size=10&sort=period,desc",
            "hreflang": null,
            "media": null,
            "title": null,
            "type": null,
            "deprecation": null
        }
    ],
    "content": [

        {
            "reference": "49900000100",
            "period": "201712",
            "survey": "066",
            "formid": 1,
            "status": "Dead",
            "receiptDate": null,
            "lockedBy": "",
            "lockedDate": null,
            "createdBy": "Frank",
            "createdDate": "2018-12-21 13:51:34.8110330 +00:00",
            "lastUpdatedBy": "kilbar",
            "lastUpdatedDate": "2019-02-07 13:37:07.1590000 +00:00",
            "formType": "0002",
            "checkletter": "X",
            "frozenSicOutdated": "56423",
            "ruSicOutdated": "56424",
            "frozenSic": "56426",
            "ruSic": "56424",
            "frozenEmployees": 196339,
            "employees": 279995,
            "frozenEmployment": 144476,
            "employment": 366112,
            "frozenFteEmployment": 3011.980,
            "fteEmployment": 191321.300,
            "frozenTurnover": 687686,
            "turnover": 371877,
            "enterpriseReference": "9900583403",
            "wowEnterpriseReference": "261761174",
            "cellNumber": "219",
            "currency": "S",
            "vatReference": "123456789012",
            "payeReference": "3210987654321",
            "companyRegistrationNumber": "123456",
            "numberLiveLocalUnits": 2961,
            "numberLiveVat": 5884,
            "numberLivePaye": 3380,
            "legalStatus": "7",
            "reportingUnitMarker": "A",
            "region": "AA",
            "birthDate": "",
            "enterpriseName": "An enterprise name",
            "name": "A reference name",
            "address": "A random reference address",
            "postcode": "A9A 9AA",
            "tradingStyle": "A random trading style",
            "contact": "Mr contact person",
            "telephone": "01234 567 890",
            "fax": "+0044 1234 567 891",
            "selectionType": "G",
            "inclusionExclusion": "X",
            "links": []
        }
    ],
    "page": {
        "size": 10,
        "totalElements": 1530,
        "totalPages": 153,
        "number": 0
    }
}