{
    "links": [
        {
            "rel": "first",
            "href": "http://localhost:8080/contributor/searchByLikePageable/reference=499;period=2017?page=0&size=10&sort=period,desc",
            "hreflang": null,
            "media": null,
            "title": null,
            "type": null,
            "deprecation": null
        },
        {
            "rel": "self",
            "href": "http://localhost:8080/contributor/searchByLikePageable/reference=499;period=2017",
            "hreflang": null,
            "media": null,
            "title": null,
            "type": null,
            "deprecation": null
        },
        {
            "rel": "next",
            "href": "http://localhost:8080/contributor/searchByLikePageable/reference=499;period=2017?page=1&size=10&sort=period,desc",
            "hreflang": null,
            "media": null,
            "title": null,
            "type": null,
            "deprecation": null
        },
        {
            "rel": "last",
            "href": "http://localhost:8080/contributor/searchByLikePageable/reference=499;period=2017?page=152&size=10&sort=period,desc",
            "hreflang": null,
            "media": null,
            "title": null,
            "type": null,
            "deprecation": null
        }
    ],
    "content": [
        
    ],
    "page": {
        "size": 10,
        "totalElements": 1530,
        "totalPages": 153,
        "number": 0
    }
}